\contentsline {section}{\numberline {1}wxPython.\_init()}{4}{section.1}
\contentsline {section}{\numberline {2}wxPython.build(self)}{4}{section.2}
\contentsline {subsection}{\numberline {2.1}wx.Frame.\_\_init\_\_(self)}{7}{subsection.2.1}
\contentsline {subsection}{\numberline {2.2}self.components}{8}{subsection.2.2}
\contentsline {section}{\numberline {3}Do's and dont's}{9}{section.3}
\contentsline {section}{\numberline {4}self.conclude}{9}{section.4}
